<?xml version="1.0" encoding="UTF-8"?>
<!DOCTYPE svg PUBLIC "-//W3C//DTD SVG 1.1//EN" "http://www.w3.org/Graphics/SVG/1.1/DTD/svg11.dtd">
<!-- Creator: CorelDRAW -->
<svg xmlns="http://www.w3.org/2000/svg" xml:space="preserve" width="0.0964291in" height="0.0457559in" style="shape-rendering:geometricPrecision; text-rendering:geometricPrecision; image-rendering:optimizeQuality; fill-rule:evenodd; clip-rule:evenodd"
viewBox="0 0 0.0015428 0.000732064"
 xmlns:xlink="http://www.w3.org/1999/xlink">
 <defs>
  <style type="text/css">
   <![CDATA[
    .fil0 {fill:#373435}
   ]]>
  </style>
 </defs>
 <g id="Layer_x0020_1">
  <metadata id="CorelCorpID_0Corel-Layer"/>
  <g id="_265314064">
   <g id="_263515344">
    <path id="_263515752" class="fil0" d="M0.00136851 0.000129191l-0.000183803 0c-2.01566e-005,0 -3.76677e-005,1.34798e-005 -4.25809e-005,3.26286e-005l-8.74294e-005 0.000343545c-1.88969e-007,6.29895e-007 -3.14948e-007,1.1968e-006 -5.03916e-007,1.8267e-006l-4.35887e-005 0.000171394c-5.92101e-006,2.30542e-005 8.37761e-006,4.64233e-005 3.18727e-005,5.21553e-005 3.5904e-006,8.81853e-007 7.1808e-006,1.32278e-006 1.07082e-005,1.32278e-006 1.96527e-005,0 3.75417e-005,-1.30388e-005 4.24549e-005,-3.26286e-005l3.55891e-005 -0.000139585 0.00015382 0c0.000115964,0 0.000216558,-7.71622e-005 0.000244777,-0.000187709l7.62173e-006 -3.0298e-005c1.31648e-005,-5.15254e-005 1.63773e-006,-0.000105004 -3.16207e-005,-0.000146829 -3.32585e-005,-4.1825e-005 -8.32721e-005,-6.5824e-005 -0.000137317,-6.5824e-005zm8.3902e-005 0.000191803l-7.68472e-006 3.0298e-005c-1.83929e-005,7.206e-005 -8.4028e-005,0.000122389 -0.000159678,0.000122389l-0.0001319 0 6.5824e-005 -0.00025832 0.000149537 0c2.68335e-005,0 5.16514e-005,1.1842e-005 6.81547e-005,3.26286e-005 1.65662e-005,2.07865e-005 2.22983e-005,4.73681e-005 1.57474e-005,7.30048e-005z"/>
    <path id="_263515728" class="fil0" d="M0.000982573 0.000181788c-2.77154e-005,-3.33844e-005 -6.87216e-005,-5.25962e-005 -0.000112625,-5.25962e-005l-0.000139018 0 1.45506e-005 -7.84219e-005c4.34628e-006,-2.33691e-005 -1.14011e-005,-4.57934e-005 -3.52741e-005,-5.00137e-005 -2.36841e-005,-4.28329e-006 -4.66752e-005,1.12121e-005 -5.09585e-005,3.46442e-005l-8.76814e-005 0.000473681c-4.40927e-006,2.33691e-005 1.14011e-005,4.57934e-005 3.52741e-005,5.00137e-005 2.64556e-006,5.03916e-007 5.22813e-006,7.55874e-007 7.87369e-006,7.55874e-007 2.07865e-005,0 3.92425e-005,-1.45506e-005 4.30848e-005,-3.54001e-005l5.71945e-005 -0.00030909 0.000154954 0c1.73851e-005,0 3.36364e-005,7.55874e-006 4.45966e-005,2.07865e-005 1.09602e-005,1.32278e-005 1.52435e-005,3.04239e-005 1.16531e-005,4.71791e-005l-4.75571e-005 0.000224684c-4.91318e-006,2.33061e-005 1.03303e-005,4.60453e-005 3.40773e-005,5.09585e-005 2.96051e-006,5.66906e-007 5.984e-006,8.81853e-007 8.94451e-006,8.81853e-007 2.02826e-005,0 3.85496e-005,-1.39837e-005 4.28959e-005,-3.43293e-005l4.75571e-005 -0.000224747c8.88152e-006,-4.2203e-005 -1.88969e-006,-8.56027e-005 -2.95421e-005,-0.000118987z"/>
    <path id="_263515272" class="fil0" d="M0.000359229 0.000129191l-0.000183803 0c-2.01566e-005,0 -3.76677e-005,1.34798e-005 -4.25179e-005,3.26286e-005l-8.74924e-005 0.000343545c-1.88969e-007,6.29895e-007 -3.14948e-007,1.1968e-006 -4.40927e-007,1.8267e-006l-4.36517e-005 0.000171394c-5.85802e-006,2.30542e-005 8.44059e-006,4.64233e-005 3.19357e-005,5.21553e-005 3.5904e-006,8.81853e-007 7.11781e-006,1.32278e-006 1.06452e-005,1.32278e-006 1.96527e-005,0 3.74788e-005,-1.30388e-005 4.25179e-005,-3.26286e-005l3.55261e-005 -0.000139585 0.00015382 0c0.000115964,0 0.000216621,-7.71622e-005 0.000244777,-0.000187709l7.68472e-006 -3.0298e-005c1.31018e-005,-5.15254e-005 1.57474e-006,-0.000105004 -3.16837e-005,-0.000146829 -3.32585e-005,-4.1825e-005 -8.32721e-005,-6.5824e-005 -0.000137317,-6.5824e-005zm8.3902e-005 0.000191803l-7.68472e-006 3.0298e-005c-1.83299e-005,7.206e-005 -8.3965e-005,0.000122389 -0.000159678,0.000122389l-0.0001319 0 6.5824e-005 -0.00025832 0.000149537 0c2.68335e-005,0 5.17144e-005,1.1842e-005 6.81547e-005,3.26286e-005 1.65662e-005,2.07865e-005 2.22983e-005,4.73681e-005 1.57474e-005,7.30048e-005z"/>
   </g>
  </g>
 </g>
</svg>
