<?xml version="1.0" encoding="utf-8"?>
<!-- Generator: Adobe Illustrator 16.0.0, SVG Export Plug-In . SVG Version: 6.00 Build 0)  -->
<!DOCTYPE svg PUBLIC "-//W3C//DTD SVG 1.1//EN" "http://www.w3.org/Graphics/SVG/1.1/DTD/svg11.dtd">
<svg version="1.1" id="Layer_1" xmlns="http://www.w3.org/2000/svg" xmlns:xlink="http://www.w3.org/1999/xlink" x="0px" y="0px"
	 width="24px" height="24px" viewBox="0 0 24 24" enable-background="new 0 0 24 24" xml:space="preserve">
<title>BCAF96B1-6C7D-4D7A-A888-8251865BC423</title>
<desc>Created with sketchtool.</desc>
<g id="Career_page_1920-1440" transform="translate(-1135.000000, -1113.000000)">
	<g id="Group-20" transform="translate(1103.000000, 883.000000)">
		<rect id="Rectangle-6" fill="none" width="447" height="415"/>
		<g id="Group-17" transform="translate(32.000000, 33.000000)">
			<g id="Group-15">
				<g id="Group-16" transform="translate(1.000000, 0.000000)">
				</g>
				<g id="Group-13-Copy" transform="translate(0.000000, 197.000000)">
					<path id="Skype" fill="#727272" d="M19.332,13.158c0.06-0.377,0.092-0.764,0.092-1.158c0-4.1-3.324-7.424-7.424-7.424
						c-0.393,0-0.781,0.033-1.158,0.092C10.158,4.245,9.351,4,8.486,4C6.008,4,4,6.008,4,8.486c0,0.865,0.245,1.671,0.668,2.356
						C4.609,11.22,4.577,11.605,4.577,12c0,4.1,3.323,7.422,7.422,7.422c0.394,0,0.782-0.029,1.159-0.09
						C13.843,19.755,14.648,20,15.514,20C17.992,20,20,17.992,20,15.514C20,14.648,19.756,13.843,19.332,13.158z M15.524,15.376
						c-0.313,0.452-0.775,0.806-1.378,1.06c-0.604,0.254-1.318,0.381-2.143,0.381c-0.988,0-1.806-0.172-2.452-0.521
						c-0.458-0.25-0.83-0.586-1.116-1.004c-0.287-0.418-0.432-0.828-0.432-1.229c0-0.235,0.09-0.44,0.265-0.607
						c0.177-0.168,0.404-0.253,0.673-0.253c0.22,0,0.409,0.066,0.563,0.198c0.153,0.131,0.281,0.322,0.386,0.574
						c0.125,0.292,0.262,0.536,0.408,0.73c0.144,0.192,0.347,0.354,0.61,0.479c0.26,0.127,0.607,0.189,1.04,0.189
						c0.594,0,1.072-0.129,1.439-0.381c0.369-0.256,0.546-0.566,0.546-0.942c0-0.3-0.096-0.537-0.292-0.723
						c-0.197-0.188-0.452-0.331-0.77-0.431c-0.317-0.102-0.744-0.208-1.279-0.32c-0.718-0.157-1.319-0.339-1.806-0.549
						c-0.487-0.21-0.875-0.498-1.163-0.861c-0.288-0.367-0.432-0.822-0.432-1.362c0-0.515,0.152-0.976,0.456-1.376
						c0.303-0.402,0.742-0.709,1.315-0.924c0.57-0.214,1.242-0.321,2.012-0.321c0.615,0,1.147,0.071,1.598,0.213
						c0.449,0.143,0.824,0.331,1.123,0.567c0.298,0.236,0.518,0.484,0.656,0.746c0.138,0.262,0.207,0.517,0.207,0.767
						c0,0.232-0.09,0.442-0.265,0.626c-0.175,0.185-0.399,0.279-0.661,0.278c-0.235,0-0.42-0.055-0.549-0.17
						c-0.125-0.111-0.256-0.289-0.398-0.536c-0.18-0.345-0.395-0.614-0.645-0.806c-0.243-0.189-0.645-0.287-1.204-0.286
						c-0.517,0-0.931,0.105-1.243,0.312c-0.314,0.21-0.464,0.454-0.465,0.739c0,0.179,0.052,0.33,0.156,0.458
						c0.105,0.13,0.251,0.243,0.439,0.338c0.188,0.096,0.379,0.171,0.571,0.225c0.194,0.055,0.517,0.135,0.965,0.24
						c0.562,0.121,1.072,0.256,1.531,0.404c0.457,0.148,0.848,0.327,1.17,0.54c0.324,0.212,0.578,0.483,0.76,0.81
						c0.183,0.328,0.273,0.729,0.273,1.199C15.997,14.414,15.839,14.925,15.524,15.376z"/>
				</g>
			</g>
		</g>
	</g>
</g>
</svg>
