<?xml version="1.0" encoding="utf-8"?>
<!-- Generator: Adobe Illustrator 16.0.0, SVG Export Plug-In . SVG Version: 6.00 Build 0)  -->
<!DOCTYPE svg PUBLIC "-//W3C//DTD SVG 1.1//EN" "http://www.w3.org/Graphics/SVG/1.1/DTD/svg11.dtd">
<svg version="1.1" id="Layer_1" xmlns="http://www.w3.org/2000/svg" xmlns:xlink="http://www.w3.org/1999/xlink" x="0px" y="0px"
	 width="78.44px" height="88.96px" viewBox="0 0 78.44 88.96" enable-background="new 0 0 78.44 88.96" xml:space="preserve">
<metadata><?xpacket begin="﻿" id="W5M0MpCehiHzreSzNTczkc9d"?>
<x:xmpmeta xmlns:x="adobe:ns:meta/" x:xmptk="Adobe XMP Core 5.3-c011 66.145661, 2012/02/06-14:56:27        ">
   <rdf:RDF xmlns:rdf="http://www.w3.org/1999/02/22-rdf-syntax-ns#">
      <rdf:Description rdf:about=""
            xmlns:dc="http://purl.org/dc/elements/1.1/">
         <dc:format>image/svg+xml</dc:format>
         <dc:title>
            <rdf:Alt>
               <rdf:li xml:lang="x-default">Print</rdf:li>
            </rdf:Alt>
         </dc:title>
      </rdf:Description>
      <rdf:Description rdf:about=""
            xmlns:xmp="http://ns.adobe.com/xap/1.0/"
            xmlns:xmpGImg="http://ns.adobe.com/xap/1.0/g/img/">
         <xmp:MetadataDate>2018-08-10T12:01:27+05:30</xmp:MetadataDate>
         <xmp:ModifyDate>2018-08-10T12:01:27+05:30</xmp:ModifyDate>
         <xmp:CreateDate>2018-08-10T12:01:26+05:30</xmp:CreateDate>
         <xmp:CreatorTool>Adobe Illustrator CS6 (Windows)</xmp:CreatorTool>
         <xmp:Thumbnails>
            <rdf:Alt>
               <rdf:li rdf:parseType="Resource">
                  <xmpGImg:width>228</xmpGImg:width>
                  <xmpGImg:height>256</xmpGImg:height>
                  <xmpGImg:format>JPEG</xmpGImg:format>
                  <xmpGImg:image>/9j/4AAQSkZJRgABAgEASABIAAD/7QAsUGhvdG9zaG9wIDMuMAA4QklNA+0AAAAAABAASAAAAAEA&#xA;AQBIAAAAAQAB/+4ADkFkb2JlAGTAAAAAAf/bAIQABgQEBAUEBgUFBgkGBQYJCwgGBggLDAoKCwoK&#xA;DBAMDAwMDAwQDA4PEA8ODBMTFBQTExwbGxscHx8fHx8fHx8fHwEHBwcNDA0YEBAYGhURFRofHx8f&#xA;Hx8fHx8fHx8fHx8fHx8fHx8fHx8fHx8fHx8fHx8fHx8fHx8fHx8fHx8fHx8f/8AAEQgBAADkAwER&#xA;AAIRAQMRAf/EAaIAAAAHAQEBAQEAAAAAAAAAAAQFAwIGAQAHCAkKCwEAAgIDAQEBAQEAAAAAAAAA&#xA;AQACAwQFBgcICQoLEAACAQMDAgQCBgcDBAIGAnMBAgMRBAAFIRIxQVEGE2EicYEUMpGhBxWxQiPB&#xA;UtHhMxZi8CRygvElQzRTkqKyY3PCNUQnk6OzNhdUZHTD0uIIJoMJChgZhJRFRqS0VtNVKBry4/PE&#xA;1OT0ZXWFlaW1xdXl9WZ2hpamtsbW5vY3R1dnd4eXp7fH1+f3OEhYaHiImKi4yNjo+Ck5SVlpeYmZ&#xA;qbnJ2en5KjpKWmp6ipqqusra6voRAAICAQIDBQUEBQYECAMDbQEAAhEDBCESMUEFURNhIgZxgZEy&#xA;obHwFMHR4SNCFVJicvEzJDRDghaSUyWiY7LCB3PSNeJEgxdUkwgJChgZJjZFGidkdFU38qOzwygp&#xA;0+PzhJSktMTU5PRldYWVpbXF1eX1RlZmdoaWprbG1ub2R1dnd4eXp7fH1+f3OEhYaHiImKi4yNjo&#xA;+DlJWWl5iZmpucnZ6fkqOkpaanqKmqq6ytrq+v/aAAwDAQACEQMRAD8AFf8AOTf5/atpepy+SPKV&#xA;21pPAo/TWpwNSVXcBlt4XG6FV3dhvvx2oaqvlaaaaeVpppGllc8nkclmYnuSdzhQsxV2KuxV2Kux&#xA;V2KuxV2KuxV2KuxV2KuxV2KuxV2KuxV2KuxV2Kvuz/nFS8126/KCybVmkdIrmeLTXlqSbRSONCdy&#xA;qyc1X2FO2BL5c/5yKutdn/OHzEurtJygn9OyR68VtAoMHAHYKyENt3JwoLzbFXYq7FXtf5D/APOQ&#xA;WveUdatNG1+9kvfKd04hcTsXazLmgliY1YICfjTpSpG/UK+3+S8eVRxpXl2p44pfmnCl/wCc/PKr&#xA;JJ/pvmDUf3kz70e7m+Jj8udcKH2Pon5X+QdH02Gxt9DspViUBp7iCOaaRh1Z5HVmJP3eG2BKP/wR&#xA;5L/6sGm/9IkH/NGKu/wR5L/6sGm/9IkH/NGKu/wR5L/6sGm/9IkH/NGKu/wR5L/6sGm/9IkH/NGK&#xA;u/wR5L/6sGm/9IkH/NGKu/wR5L/6sGm/9IkH/NGKu/wR5L/6sGm/9IkH/NGKu/wR5L/6sGm/9IkH&#xA;/NGKu/wR5L/6sGm/9IkH/NGKu/wR5L/6sGm/9IkH/NGKu/wR5L/6sGm/9IkH/NGKu/wR5L/6sGm/&#xA;9IkH/NGKu/wR5L/6sGm/9IkH/NGKu/wR5L/6sGm/9IkH/NGKu/wR5L/6sGm/9IkH/NGKu/wR5L/6&#xA;sGm/9IkH/NGKu/wR5L/6sGm/9IkH/NGKu/wR5L/6sGm/9IkH/NGKu/wR5L/6sGm/9IkH/NGKu/wR&#xA;5L/6sGm/9IkH/NGKpzCiQRJDCoihjAWONBxVVGwAA2AGFUDqPl/QdTlWbUtNtb6ZBxWS5gjlYL1o&#xA;C6saYFQn+CPJf/Vg03/pEg/5oxV3+CPJf/Vg03/pEg/5oxVTn8g+Rp4Xhl8v6c0cgKsPqkIND4EK&#xA;CPmMVfI35yeSLXyd55utMsQw06dEu7FHJJWKUkcOR3YI6soPgN98KH1D/jTUv+hSf09zP179DfUf&#xA;V/ar6v1D1Ov2qfFXxwJfKH5Wf+TI8s/9tK2/5ODCh9y4pdirHvPnnfS/Jnl2XW9RV5Y1dYoYIgOc&#xA;kr14oCdhsCST2GKvIf8AobWw/wCpal/6S1/6pYq1/wBDa2P/AFLUv/SWv/VLFXf9Da2P/UtS/wDS&#xA;Wv8A1SxV3/Q2tj/1LUv/AElr/wBUsVd/0NrY/wDUtS/9Ja/9UsVd/wBDa2P/AFLUv/SWv/VLFXf9&#xA;Da2P/UtS/wDSWv8A1SxV3/Q2tj/1LUv/AElr/wBUsVd/0NrY/wDUtS/9Ja/9UsVd/wBDa2P/AFLU&#xA;v/SWv/VLFXf9Da2P/UtS/wDSWv8A1SxV3/Q2tj/1LUv/AElr/wBUsVd/0NrY/wDUtS/9Ja/9UsVd&#xA;/wBDa2P/AFLUv/SWv/VLFWx/zlpYVFfLUoHci7Umn/IrFXtPlTzNp3mfy9Za7p3L6nfIXjWQUdSr&#xA;FHVgKiqupG2KsB/OP86ZvId9Y6bZact7eXURuJHmcrGsfIoAOO5YlT8vfFWbeRfNcHm3ynp3mGGA&#xA;2yXyMWgY8ijxyNE68qCo5oaGnTFXlOn/APOTKXfnuLRv0Sq6JcXa2UN56jeuObiNZmWhWldyo3p3&#xA;PdV6b+ZHneHyV5UudcktzdSRskVvbg8Q8shovJqGgG5OKsZ/Jv8AOJ/Px1C0vLFLHULEJKPSZmjk&#xA;iclajlupUjffvir03FXYq+Vv+cqv/Jhaf/2yIf8AqJuMUPUP/XJv+jX/ALuuBL5z/Kz/AMmR5Z/7&#xA;aVt/ycGFD7lxS7FUi86eTdG84aDNomrB/q0rLIksRCyRyJ9l0JDCvUbg7Yq8s/6FR8pf9Xm/+6H/&#xA;AJoxV3/QqPlL/q83/wB0P/NGKu/6FR8pf9Xm/wDuh/5oxV3/AEKj5S/6vN/90P8AzRirv+hUfKX/&#xA;AFeb/wC6H/mjFXf9Co+Uv+rzf/dD/wA0Yq7/AKFR8pf9Xm/+6H/mjFXf9Co+Uv8Aq83/AN0P/NGK&#xA;u/6FR8pf9Xm/+6H/AJoxV3/QqPlL/q83/wB0P/NGKu/6FR8pf9Xm/wDuh/5oxV3/AEKj5S/6vN/9&#xA;0P8AzRirv+hUfKX/AFeb/wC6H/mjFXf9Co+Uv+rzf/dD/wA0Yq2P+cUfKNRXWdQI7gCEf8aYq9c8&#xA;teXdL8t6FZ6JpaGOxskKRBjyY8mLszHuzMxY4qkHn/8AKfyn55ktZtYWeO6tAUiubVxG5jJ5FG5K&#xA;6la+1R2xVkWgaFpmgaPa6PpcXoWFmnCGOpY0JLEknclmJJPjirDbb8ify/t/Nw8zx2831pZ/rSWZ&#xA;kH1VZ68uax8eWz/EF5cR4U2xVlvmjyxpHmbRLnRdXiMtlcgcgp4urKeSujdmUio/piqT+QPyv8re&#xA;RobpdGWZ5rwr691cuskpVK8UBVUUKKk7D59sVZbirsVfK3/OVX/kwtP/AO2RD/1E3GKHqH/rk3/R&#xA;r/3dcCXzn+Vn/kyPLP8A20rb/k4MKH3Lil2KuxV2KuxV2KuxV2KuxV2KuxV2KuxV2KuxV2KuxV2K&#xA;uxV2KuxV2KuxV2KuxV2Kvlb/AJyq/wDJhaf/ANsiH/qJuMUPUP8A1yb/AKNf+7rgS+WvL2tXGh67&#xA;YazbIks+nzx3EUcleDNGwYBqEGm3jhQ9d/6Gt86f9WnTfun/AOquK27/AKGt86f9WnTfun/6q4rb&#xA;v+hrfOn/AFadN+6f/qritu/6Gt86f9WnTfun/wCquK2tf/nKzzuVITStMVuxZbgj7hMP14raj/0N&#xA;V+YX/Vv0j/kTc/8AZRirv+hqvzC/6t+kf8ibn/soxV3/AENV+YX/AFb9I/5E3P8A2UYq7/oar8wv&#xA;+rfpH/Im5/7KMVd/0NV+YX/Vv0j/AJE3P/ZRirv+hqvzC/6t+kf8ibn/ALKMVd/0NV+YX/Vv0j/k&#xA;Tc/9lGKtj/nKr8waiunaSR3AhuQaf9JGKq//AENb50/6tOm/dP8A9VcVt3/Q1vnT/q06b90//VXF&#xA;bd/0Nb50/wCrTpv3T/8AVXFbd/0Nb50/6tOm/dP/ANVcVt3/AENb50/6tOm/dP8A9VcVt6z+TH5s&#xA;yefrK/W9tY7PU9OaP1UhJMbxzcuLKGJYUKENue3jilr85/zbl8g2lhHY2kd5qWos5jWYsI444uPJ&#xA;mC0YklwAKjviryf/AKGt86f9WnTfun/6q4ota/8AzlZ53KkJpWmK3YstwR9wmH68VtR/6Gq/ML/q&#xA;36R/yJuf+yjFXf8AQ1X5hf8AVv0j/kTc/wDZRira/wDOVX5gchy07SSvcCK5Bp8/rBxVX/6Gt86f&#xA;9WnTfun/AOquK287/MT8wdU89a3Bq+o28FtPBbLaLHbhwhRJHkBPNnNaynFX0Z/65N/0a/8Ad1wJ&#xA;fLvlnRH13zDp2jJKIH1G4jtlmYcghkYLyIBFaVwoe0/9Cmar/wBTFB/0jP8A814rS+H/AJxLvzIB&#xA;N5liSPuyWjOfuMqfrxWkR/0KP/39f/cv/wCznFad/wBCj/8Af1/9y/8A7OcVp3/Qo/8A39f/AHL/&#xA;APs5xWnf9Cj/APf1/wDcv/7OcVp3/Qo//f1/9y//ALOcVp3/AEKP/wB/X/3L/wDs5xWnf9Cj/wDf&#xA;1/8Acv8A+znFad/0KP8A9/X/ANy//s5xWnf9Cj/9/X/3L/8As5xWnf8AQo//AH9f/cv/AOznFad/&#xA;0KP/AN/X/wBy/wD7OcVp3/Qo/wD39f8A3L/+znFad/0KP/39f/cv/wCznFaaf/nEhwjFPNQL0PEG&#xA;woCe1SLg0+7FaQv/AEKZqv8A1MUH/SM//NeK07/oUzVf+pig/wCkZ/8AmvFaeqflJ+VFr+X+n3iG&#xA;8+v6hqDIbm4CemgSLlwRFqx25kk13xS1+bf5TWn5gWNmBd/UNR09nNvclPUVkkpzR1BU9VBBrt9O&#xA;KvL4f+cS78yATeZYkj7slozn7jKn68UUiP8AoUf/AL+v/uX/APZzitO/6FH/AO/r/wC5f/2c4rTv&#xA;+hR/+/r/AO5f/wBnOK07/oUf/v6/+5f/ANnOK003/OJDcTx81AtT4QbCgJ9z9ZOK08o/M78vLjyH&#xA;r1vpE96l889ql2JkQxgB5JI+NCW/31XFX0N/65N/0a/93XAl87flMgf8zfKyE0DanaivzlXCh97f&#xA;oiP/AH4fuGKXfoiP/fh+4Yq79ER/78P3DFXfoiP/AH4fuGKu/REf+/D9wxV36Ij/AN+H7hirv0RH&#xA;/vw/cMVd+iI/9+H7hirv0RH/AL8P3DFXfoiP/fh+4Yq79ER/78P3DFXfoiP/AH4fuGKu/REf+/D9&#xA;wxV36Ij/AN+H7hirv0RH/vw/cMVd+iI/9+H7hirv0RH/AL8P3DFXfoiP/fh+4Yq79ER/78P3DFXf&#xA;oiP/AH4fuGKu/REf+/D9wxV36Ij/AN+H7hirv0RH/vw/cMVd+iI/9+H7hirv0RH/AL8P3DFXfoiP&#xA;/fh+4Yq+Sv8AnLa2W3/MfTUDFgdHhNT/AMxVyMUPSP8A1yb/AKNf+7rgS+ePyi/8mj5U/wC2paf8&#xA;nVwofoJirsVdirsVdirsVdirsVdirsVdirsVdirsVdirsVdirsVdirsVdirsVdirsVdirsVfIH/O&#xA;YH/ky9M/7Y0H/UVdYq9C/wDXJv8Ao1/7uuBL54/KL/yaPlT/ALalp/ydXCh+gmKuxV2KuxV2KuxV&#xA;2KuxV2KuxV2KuxV2KuxV2KuxV2KuxV2KuxV2KuxV2KuxV2KuxV8gf85gf+TL0z/tjQf9RV1ir0L/&#xA;ANcm/wCjX/u64Evnj8ov/Jo+VP8AtqWn/J1cKH6CYq7FXYq7FXYq7FXYq7FXYq7FXYq7FXYq7FXY&#xA;q7FXYq7FXYq7FXYq7FXYq7FXYq7FXyB/zmB/5MvTP+2NB/1FXWKvQv8A1yb/AKNf+7rgS+ePyi/8&#xA;mj5U/wC2paf8nVwofoJirsVdirsVdirsVdirsVdirsVdirsVdirsVdirsVdirsVdirsVdirsVdir&#xA;sVdirsVfIH/OYH/ky9M/7Y0H/UVdYq9C/wDXJv8Ao1/7uuBL54/KL/yaPlT/ALalp/ydXCh+gmKu&#xA;xV2KuxV2KuxV2KuxV2KuxV2KuxV2KuxV2KuxV2KuxV2KuxV2KuxV2KuxV2KuxV8gf85gf+TL0z/t&#xA;jQf9RV1ir0L/ANcm/wCjX/u64Evnj8ov/Jo+VP8AtqWn/J1cKH6CYq7FXYq7FXYq7FXYq7FXYq7F&#xA;XYq7FXYq7FXYq7FXYq7FXYq7FXYq7FXYq7FXYq7FXyB/zmB/5MvTP+2NB/1FXWKvQv8A1yb/AKNf&#xA;+7rgS+ePyi/8mj5U/wC2paf8nVwofoJirsVdirsVdirsVdiry3V/+ckvyv0vzR/h+a6nmkSX0LjU&#xA;II1ezietCHk5hiFPUojDFXqWKuxV2KuxVZHNDIzrHIrtGeMgUglW8DTocVX4q7FXYq7FXYq8082/&#xA;85Cfl15W81f4b1KW5e7jKLeXFvEskFuzgGkrc1eoUgngrU+e2KvRrW6tru2iurWVJ7adFkhmjYMj&#xA;owqrKw2IIxVVxV2KuxV2KuxV2KvkD/nMD/yZemf9saD/AKirrFXoX/rk3/Rr/wB3XAl88flF/wCT&#xA;R8qf9tS0/wCTq4UP0ExV2KuxV2KuxV2Kvmb/AJyD/wCcg6fWfJ/k+533i1fV4j9DQQMPudx8hirz&#xA;b8kvyU1Pz/qgvLwPa+V7OQfXLulGmYb+hBXqx/aboo96AhX3FhV2KuxV5h/zkH+Yx8l+RJhZzenr&#xA;escrTTSpo6Aj99MP+MaHY9mK4q8J/wCcTrDX7n8yZr+0eRdMtbWX9LvU8H9UEQo3ixk+MV/lOKvs&#xA;XFXYq7FXYq7FXy9/zkn+R98L298+eX0a4gn/AHutWKjk8TBQGuI+7IaVcfsnf7P2VWKfkP8Anxc+&#xA;TLmPQdekefytO/wPuz2Tsd3QdTETu6D/AFl3qGVfY9rdW13bRXVrKk9tOiyQzRsGR0YVVlYbEEYq&#xA;q4q7FXYq7FXYq+QP+cwP/Jl6Z/2xoP8AqKusVehf+uTf9Gv/AHdcCXzx+UX/AJNHyp/21LT/AJOr&#xA;hQ/QTFXYq7FXYq7FXzN/zkH/AM5B0+s+T/J9zvvFq+rxH6GggYfc7j5DFXm35J/knqf5gan9bu+d&#xA;p5XtHAvLwCjTMN/Qgr1Y/tN0Ue9AQr7W0jSNM0fTLbS9LtktNPtEEdvbxiiqo/WT1JO5O5wqjMVd&#xA;irTMqqWYhVUVJOwAGKvg/wDO/wDMKTz15+uru1cyaTZn6lpCAbNEjbyAUBrK9W33pQdsCvq78jPy&#xA;6XyP5EtbS4j4azf0vNWJ6iVx8MVfCJKLT+bke+FXoeKuxV2KuxV2KtEAggioPUYq+Vv+cgv+cfTp&#xA;hufN3lG2rpprLqulRD/efu00Kj/dXdlH2Oo+H7KrHfyH/Pi58mXMeg69I8/lad/gfdnsnY7ug6mI&#xA;nd0H+su9Qyr7Htbq2u7aK6tZUntp0WSGaNgyOjCqsrDYgjFVXFXYq7FXYq+QP+cwP/Jl6Z/2xoP+&#xA;oq6xV6F/65N/0a/93XAl88flF/5NHyp/21LT/k6uFD9BMVdirsVdiryj/nJjzB5j0T8sppdELxG6&#xA;uI7W/u4jR4baRW5EECo5sFSv+Vir5J/LjRPLet+c9M0zzHqP6L0i4l4z3PSp/Zj5naP1D8PNtl64&#xA;FfoDpGkaZo+mW2l6XbJaafaII7e3jFFVR+snqSdydzhVGYq7FXYq8b/5yb/Mb/DPko6LZS8NY8wB&#xA;oF4n4o7UUE7+3IH0x8zTpirxL/nGX8uR5o87DWb6IPo/l8pcSBvsyXRqYE9wpXmfkAeuKh9o4q7F&#xA;XYq7FXYq7FXYq0QCCCKg9Rir4n/5yQ8q+R/L3ncxeWbhVuLlTLqmkxCsVpK1COLDZfUBr6f7PyIA&#xA;VL0T/nD/AMy+ZboaxoM7PP5fsYkntnepFvPI5HpIf5ZBybj2K1HU4q+lcVdirsVdir5A/wCcwP8A&#xA;yZemf9saD/qKusVehf8Ark3/AEa/93XAl88flF/5NHyp/wBtS0/5OrhQ/QTFXYq7FXYqoX9hZahZ&#xA;T2N9AlzZ3KNFPBKoZHRhQqwPUHFXxj+en5F3vka9fWNHR7nypcv8D7s9o7HaKU90P7D/AEHfqqzT&#xA;/nHz/nIP6r9W8n+cLn/RdotI1eU/3fZYJ2P7HZHP2eh+H7IV9Q4Vdiqlc3MFrby3NxIsVvAjSTSu&#xA;aKqIOTMT4ADFXwL+Z3nS/wDzB8/3WpxI7xXEi2mkWm5ZYFPCJAv8zk8iP5mOBX2d+U3kK38jeSLD&#xA;RFCm9p6+pzL/ALsupQC5r3CbIp8FGFWY4q7FXYq7FXYq7FXYq8S/Pv8APuDyjBL5d8uyrN5nmWk8&#xA;4oyWSMOp7GUj7K9up7Aqvm/8uPy48zfmT5ma2tmf0efravq81XWJXJLMzE1eRzXitak+1SFX3B5M&#xA;8maB5O0CDRNEg9G1h3dzQySyEfFLK23J2p/AUAAxVPcVdirsVdir5A/5zA/8mXpn/bGg/wCoq6xV&#xA;6F/65N/0a/8Ad1wJfPH5Rf8Ak0fKn/bUtP8Ak6uFD9BMVdirsVdirsVUL+wstQsp7G+gS5s7lGin&#xA;glUMjowoVYHqDir4x/PT8i73yNevrGjo9z5UuX+B92e0djtFKe6H9h/oO/VVmn/OPn/OQX1b6t5O&#xA;84XP+jfDDpGrSn+77LBOx/Y7I5+z0Pw/ZCvqHCrwb/nKz8xRo/lmLyjYyU1DWxzvSp+KOzRuh/4z&#xA;OOPyDeOKvPP+cU/y6/TPmeXzZfR8tP0IhbMMKrJeutQR2/coeX+sVOKvrzFWI/mP+aPlf8vtNt77&#xA;XTM5u5DHa2tqivNIVALkB2jWi1FSW7jFUZ5E896B538vx65obyG1Z2hkimUJLFKlC0cigstaMDsS&#xA;KHFUk/Mr86fJ35e3Fpa60Lq4vLxDLHbWUaSOsYPHm/qPEoBYEDfscVZV5a8xaV5k0Ky1zSZTNp9/&#xA;H6kDkFTSpVlYHoysCp98VYT57/P/AMg+SvMQ0DVfrc18qo1ybWJZEgEg5L6hZ4zXiQ1EDbYq9Dsr&#xA;y1vbOC9tJBNa3MaTW8y/ZeORQyMPYg1xV41+fv58R+ToZPLmgOJPNE6AzTUqtlHItVYg7GVlNUXt&#xA;9o9gVXzb+XH5ceZvzJ8zNbWzP6PP1tX1earrErklmZiavI5rxWtSfapCr7g8meTNA8naBBomiQej&#xA;aw7u5oZJZCPillbbk7U/gKAAYqnuKuxV2KuxV2KvkD/nMD/yZemf9saD/qKusVehf+uTf9Gv/d1w&#xA;JfPH5Rf+TR8qf9tS0/5OrhQ/QTFXYq7FXYq7FXYqoX9hZahZT2N9AlzZ3KNFPBKoZHRhQqwPUHFX&#xA;zjrH/OHsc3mczaXra2vlyWTm1vJGz3MKk1MUbV4uOtGYgjuG7qvpXFXhn51/848ap5780w+YNI1S&#xA;C1keCO3vILsSED0ieLxlA3VTupA8a74q9S8g+TNP8m+U9P8AL1iecdmn76cgK0sznlJIwH8zHbwF&#xA;B2xVkOKvN/zq/J2H8ydN0+Nb/wDR2oaW8jW0zR+rGyThRIjKCp39NSCD2xVNPyl/La2/L3ymNDiu&#xA;2vppZ3u7u5K+mrTSKiHglWooWNR198VYt+dX5CJ+YuqWGrW2qDTb+0g+qS+pEZUkhDtItKMhVlaR&#xA;vnXtirPvIXk+08neUdN8t2kzXEOnoy+u44s7ySNLI3EE8au5IFdsVeX/AJqf841RedvOb+ZLbWv0&#xA;ebxYl1CB4fWJMKLEHiIdKVjQCh771xV7FoulWuj6PYaTaV+q6dbxWlvy3b04EEaV96Lirwr8xf8A&#xA;nF2880+fLrX7PXI7Sw1OQTXkU0TyTRNxCt6VGCuDSoqVp03xV7L5M8maB5O0CDRNEg9G1h3dzQyS&#xA;yEfFLK23J2p/AUAAxVPcVdirsVdirsVdir5A/wCcwP8AyZemf9saD/qKusVehf8Ark3/AEa/93XA&#xA;l88flF/5NHyp/wBtS0/5OrhQ/QTFXYq7FXYq7FXYq7FXYq7FXYq7FXYq7FXYq7FXYq7FXYq7FXYq&#xA;7FXYq7FXYq7FXYq+QP8AnMD/AMmXpn/bGg/6irrFXoX/AK5N/wBGv/d1wJfPH5Rf+TR8qf8AbUtP&#xA;+Tq4UP0ExV2KuxV2KuxV2KuxV2KuxV2KuxV2KuxV2KuxV2KuxV2KvN/z3/MzVfy/8oQ6lpVqlxfX&#xA;t0tpFJOrNDFyjdy7BStWonwivv2pir56/wChsfzW/wC1d/0jN/1UxW3f9DY/mt/2rv8ApGb/AKqY&#xA;rbv+hsfzW/7V3/SM3/VTFbZp+UH/ADkl528x+fNO8v65bWs9nqZaJXtomjlidUZw/wBpgV+H4qjp&#xA;v23VfTOKuxV2KvkD/nMD/wAmXpn/AGxoP+oq6xV6F/65N/0a/wDd1wJfPH5Rf+TR8qf9tS0/5Orh&#xA;Q/QTFXYq7FXYq7FXYq7FXYq7FXYq7FXYq7FXYq7FXYq7FXYql+u6Bouv6bJpms2UV/YS0L286hlq&#xA;OjDwYdiNxirEf+VD/lD/ANSxa/fL/wA14ql/mH8pvyM8vaLd61q3l+0ttOsU9S4mPrGgqAAAGJJZ&#xA;iAAOpwK8kPn7/nFAEj/CN0ff0P8As5xVm35R+dv+cfrvzWtn5R0c6RrtxG6W0tzDxMgA5PHG/qTc&#xA;W4rXtXFXueFXYq7FXyB/zmB/5MvTP+2NB/1FXWKvQv8A1yb/AKNf+7rgS+ePyi/8mj5U/wC2paf8&#xA;nVwofoJirsVdirsVdirsVdirsVdirsVdirsVdirsVdirsVdirsVdirsVSHz15QsfOHlPUfLd9I8N&#xA;vqCKpmjoWR43WWNwD14yIpI79MVeCf8AQl//AH+P/ct/7OsVZN+XP/OLmn+UfNln5hu9ebVWsC0l&#xA;tai1+rL6pUqrs3rTE8a1A23xV7nirsVdir5A/wCcwP8AyZemf9saD/qKusVehf8Ark3/AEa/93XA&#xA;l88flF/5NHyp/wBtS0/5OrhQ/QTFXYq7FXYq7FXYq7FXYq7FXYq7FXYq7FXYq7FXYq7FXYq7FXYq&#xA;7FXYq7FXYq7FXYq+QP8AnMD/AMmXpn/bGg/6irrFXoX/AK5N/wBGv/d1wJfPH5Rf+TR8qf8AbUtP&#xA;+Tq4UP0ExV2KuxV2KuxV2KuxV2KuxV2KuxV2KuxV2KuxV2KuxV2KuxV2KuxV2KuxV2KuxV2KvkD/&#xA;AJzA/wDJl6Z/2xoP+oq6xV6F/wCuTf8ARr/3dcCXzx+UX/k0fKn/AG1LT/k6uFD9BMVdirsVdirs&#xA;VdirsVdirsVdirsVdirsVdirsVdirsVdirsVdirsVdirsVdirsVdir5A/wCcwP8AyZemf9saD/qK&#xA;usVehf8Ark3/AEa/93XAl88flF/5NHyp/wBtS0/5OrhQ/QTFXYq7FXYq7FXYq7FXYq7FXYq7FXYq&#xA;7FXYq7FXYq7FXYq7FXYq7FXYq7FXYq7FXYq+QP8AnMD/AMmXpn/bGg/6irrFXoX/AK5N/wBGv/d1&#xA;wJfPH5Rf+TR8qf8AbUtP+Tq4UP0ExV2KuxV2KuxV2KuxV2KuxV2KuxV2KuxV2KuxV2KuxV2KuxV2&#xA;KuxV2KuxV2KuxV2KvkD/AJzA/wDJl6Z/2xoP+oq6xV6F/wCuTf8ARr/3dcCXzl+V97aWP5j+Wbu8&#xA;mS3tYNStXnnkYKiIsqkszHYAdzhQ+6/+VgeQ/wDqZNL/AOk23/5rxS7/AJWB5D/6mTS/+k23/wCa&#xA;8Vd/ysDyH/1Mml/9Jtv/AM14qq2vnXybd3Mdraa9p1xczMEhgiu4Hd2OwVVVyST4DFU74P8Ayn7s&#xA;UJHced/JdtPJb3Ov6bDcQsUlhku4EdGU0KspcEEHscVU/wDlYHkP/qZNL/6Tbf8A5rxS7/lYHkP/&#xA;AKmTS/8ApNt/+a8Vd/ysDyH/ANTJpf8A0m2//NeKu/5WB5D/AOpk0v8A6Tbf/mvFXf8AKwPIf/Uy&#xA;aX/0m2//ADXirv8AlYHkP/qZNL/6Tbf/AJrxV3/KwPIf/UyaX/0m2/8AzXirv+VgeQ/+pk0v/pNt&#xA;/wDmvFXf8rA8h/8AUyaX/wBJtv8A814q7/lYHkP/AKmTS/8ApNt/+a8Vd/ysDyH/ANTJpf8A0m2/&#xA;/NeKu/5WB5D/AOpk0v8A6Tbf/mvFXf8AKwPIf/UyaX/0m2//ADXirv8AlYHkP/qZNL/6Tbf/AJrx&#xA;V3/KwPIf/UyaX/0m2/8AzXirv+VgeQ/+pk0v/pNt/wDmvFXf8rA8h/8AUyaX/wBJtv8A814q7/lY&#xA;HkP/AKmTS/8ApNt/+a8Vd/ysDyH/ANTJpf8A0m2//NeKu/5WB5D/AOpk0v8A6Tbf/mvFXyj/AM5V&#xA;a5o2sfmLZTaTfQX8EGlQwyzW0iyosguLh+PJCVrxkU/Tih6h/wCuTf8ARr/3dcCXhf50flTrPkDz&#xA;deW8ls50K5leXR78KTE8LHksZelBJGDxZfp6EYUPPsVdirsVV7GC8uLyCCyR5LyR1W3jiBMhkJ+E&#xA;KBvWvTFX6SXVv5kbyBNbRuw8ynSmjSQMAwvvq1A3MbV9XuMCX5s3UF1b3MsF3G8V1E7JPFKCrq4N&#xA;GDBtwQetcKFLFXYq7FXYq7FXYq7FXYq7FXYq7FXYq7FXYq7FXYq7FXYq7FXYqnHlXyl5h81azBo+&#xA;hWUl7ezsFCoDxQE0LyN0RF7sdsVffP8Ayq2x/wCVPf8AKuvUHp/oz6l9Z3p9Y48/Wp1p6/x0wJf/&#xA;2Q==</xmpGImg:image>
               </rdf:li>
            </rdf:Alt>
         </xmp:Thumbnails>
      </rdf:Description>
      <rdf:Description rdf:about=""
            xmlns:xmpMM="http://ns.adobe.com/xap/1.0/mm/"
            xmlns:stRef="http://ns.adobe.com/xap/1.0/sType/ResourceRef#"
            xmlns:stEvt="http://ns.adobe.com/xap/1.0/sType/ResourceEvent#">
         <xmpMM:InstanceID>xmp.iid:B58FC6F65E9CE811AA58FF8E78FE6F1E</xmpMM:InstanceID>
         <xmpMM:DocumentID>xmp.did:B58FC6F65E9CE811AA58FF8E78FE6F1E</xmpMM:DocumentID>
         <xmpMM:OriginalDocumentID>uuid:5D20892493BFDB11914A8590D31508C8</xmpMM:OriginalDocumentID>
         <xmpMM:RenditionClass>proof:pdf</xmpMM:RenditionClass>
         <xmpMM:DerivedFrom rdf:parseType="Resource">
            <stRef:instanceID>xmp.iid:AF8FC6F65E9CE811AA58FF8E78FE6F1E</stRef:instanceID>
            <stRef:documentID>xmp.did:AF8FC6F65E9CE811AA58FF8E78FE6F1E</stRef:documentID>
            <stRef:originalDocumentID>uuid:5D20892493BFDB11914A8590D31508C8</stRef:originalDocumentID>
            <stRef:renditionClass>proof:pdf</stRef:renditionClass>
         </xmpMM:DerivedFrom>
         <xmpMM:History>
            <rdf:Seq>
               <rdf:li rdf:parseType="Resource">
                  <stEvt:action>saved</stEvt:action>
                  <stEvt:instanceID>xmp.iid:AF8FC6F65E9CE811AA58FF8E78FE6F1E</stEvt:instanceID>
                  <stEvt:when>2018-08-10T11:16:46+05:30</stEvt:when>
                  <stEvt:softwareAgent>Adobe Illustrator CS6 (Windows)</stEvt:softwareAgent>
                  <stEvt:changed>/</stEvt:changed>
               </rdf:li>
               <rdf:li rdf:parseType="Resource">
                  <stEvt:action>saved</stEvt:action>
                  <stEvt:instanceID>xmp.iid:B58FC6F65E9CE811AA58FF8E78FE6F1E</stEvt:instanceID>
                  <stEvt:when>2018-08-10T12:01:27+05:30</stEvt:when>
                  <stEvt:softwareAgent>Adobe Illustrator CS6 (Windows)</stEvt:softwareAgent>
                  <stEvt:changed>/</stEvt:changed>
               </rdf:li>
            </rdf:Seq>
         </xmpMM:History>
      </rdf:Description>
      <rdf:Description rdf:about=""
            xmlns:illustrator="http://ns.adobe.com/illustrator/1.0/">
         <illustrator:StartupProfile>Print</illustrator:StartupProfile>
      </rdf:Description>
      <rdf:Description rdf:about=""
            xmlns:xmpTPg="http://ns.adobe.com/xap/1.0/t/pg/"
            xmlns:stDim="http://ns.adobe.com/xap/1.0/sType/Dimensions#"
            xmlns:xmpG="http://ns.adobe.com/xap/1.0/g/">
         <xmpTPg:HasVisibleOverprint>False</xmpTPg:HasVisibleOverprint>
         <xmpTPg:HasVisibleTransparency>False</xmpTPg:HasVisibleTransparency>
         <xmpTPg:NPages>1</xmpTPg:NPages>
         <xmpTPg:MaxPageSize rdf:parseType="Resource">
            <stDim:w>78.440430</stDim:w>
            <stDim:h>88.959961</stDim:h>
            <stDim:unit>Pixels</stDim:unit>
         </xmpTPg:MaxPageSize>
         <xmpTPg:PlateNames>
            <rdf:Seq>
               <rdf:li>Cyan</rdf:li>
               <rdf:li>Magenta</rdf:li>
               <rdf:li>Yellow</rdf:li>
               <rdf:li>Black</rdf:li>
            </rdf:Seq>
         </xmpTPg:PlateNames>
         <xmpTPg:SwatchGroups>
            <rdf:Seq>
               <rdf:li rdf:parseType="Resource">
                  <xmpG:groupName>Default Swatch Group</xmpG:groupName>
                  <xmpG:groupType>0</xmpG:groupType>
                  <xmpG:Colorants>
                     <rdf:Seq>
                        <rdf:li rdf:parseType="Resource">
                           <xmpG:swatchName>White</xmpG:swatchName>
                           <xmpG:mode>CMYK</xmpG:mode>
                           <xmpG:type>PROCESS</xmpG:type>
                           <xmpG:cyan>0.000000</xmpG:cyan>
                           <xmpG:magenta>0.000000</xmpG:magenta>
                           <xmpG:yellow>0.000000</xmpG:yellow>
                           <xmpG:black>0.000000</xmpG:black>
                        </rdf:li>
                        <rdf:li rdf:parseType="Resource">
                           <xmpG:swatchName>Black</xmpG:swatchName>
                           <xmpG:mode>CMYK</xmpG:mode>
                           <xmpG:type>PROCESS</xmpG:type>
                           <xmpG:cyan>0.000000</xmpG:cyan>
                           <xmpG:magenta>0.000000</xmpG:magenta>
                           <xmpG:yellow>0.000000</xmpG:yellow>
                           <xmpG:black>100.000000</xmpG:black>
                        </rdf:li>
                        <rdf:li rdf:parseType="Resource">
                           <xmpG:swatchName>CMYK Red</xmpG:swatchName>
                           <xmpG:mode>CMYK</xmpG:mode>
                           <xmpG:type>PROCESS</xmpG:type>
                           <xmpG:cyan>0.000000</xmpG:cyan>
                           <xmpG:magenta>100.000000</xmpG:magenta>
                           <xmpG:yellow>100.000000</xmpG:yellow>
                           <xmpG:black>0.000000</xmpG:black>
                        </rdf:li>
                        <rdf:li rdf:parseType="Resource">
                           <xmpG:swatchName>CMYK Yellow</xmpG:swatchName>
                           <xmpG:mode>CMYK</xmpG:mode>
                           <xmpG:type>PROCESS</xmpG:type>
                           <xmpG:cyan>0.000000</xmpG:cyan>
                           <xmpG:magenta>0.000000</xmpG:magenta>
                           <xmpG:yellow>100.000000</xmpG:yellow>
                           <xmpG:black>0.000000</xmpG:black>
                        </rdf:li>
                        <rdf:li rdf:parseType="Resource">
                           <xmpG:swatchName>CMYK Green</xmpG:swatchName>
                           <xmpG:mode>CMYK</xmpG:mode>
                           <xmpG:type>PROCESS</xmpG:type>
                           <xmpG:cyan>100.000000</xmpG:cyan>
                           <xmpG:magenta>0.000000</xmpG:magenta>
                           <xmpG:yellow>100.000000</xmpG:yellow>
                           <xmpG:black>0.000000</xmpG:black>
                        </rdf:li>
                        <rdf:li rdf:parseType="Resource">
                           <xmpG:swatchName>CMYK Cyan</xmpG:swatchName>
                           <xmpG:mode>CMYK</xmpG:mode>
                           <xmpG:type>PROCESS</xmpG:type>
                           <xmpG:cyan>100.000000</xmpG:cyan>
                           <xmpG:magenta>0.000000</xmpG:magenta>
                           <xmpG:yellow>0.000000</xmpG:yellow>
                           <xmpG:black>0.000000</xmpG:black>
                        </rdf:li>
                        <rdf:li rdf:parseType="Resource">
                           <xmpG:swatchName>CMYK Blue</xmpG:swatchName>
                           <xmpG:mode>CMYK</xmpG:mode>
                           <xmpG:type>PROCESS</xmpG:type>
                           <xmpG:cyan>100.000000</xmpG:cyan>
                           <xmpG:magenta>100.000000</xmpG:magenta>
                           <xmpG:yellow>0.000000</xmpG:yellow>
                           <xmpG:black>0.000000</xmpG:black>
                        </rdf:li>
                        <rdf:li rdf:parseType="Resource">
                           <xmpG:swatchName>CMYK Magenta</xmpG:swatchName>
                           <xmpG:mode>CMYK</xmpG:mode>
                           <xmpG:type>PROCESS</xmpG:type>
                           <xmpG:cyan>0.000000</xmpG:cyan>
                           <xmpG:magenta>100.000000</xmpG:magenta>
                           <xmpG:yellow>0.000000</xmpG:yellow>
                           <xmpG:black>0.000000</xmpG:black>
                        </rdf:li>
                        <rdf:li rdf:parseType="Resource">
                           <xmpG:swatchName>C=15 M=100 Y=90 K=10</xmpG:swatchName>
                           <xmpG:mode>CMYK</xmpG:mode>
                           <xmpG:type>PROCESS</xmpG:type>
                           <xmpG:cyan>14.999998</xmpG:cyan>
                           <xmpG:magenta>100.000000</xmpG:magenta>
                           <xmpG:yellow>90.000000</xmpG:yellow>
                           <xmpG:black>10.000002</xmpG:black>
                        </rdf:li>
                        <rdf:li rdf:parseType="Resource">
                           <xmpG:swatchName>C=0 M=90 Y=85 K=0</xmpG:swatchName>
                           <xmpG:mode>CMYK</xmpG:mode>
                           <xmpG:type>PROCESS</xmpG:type>
                           <xmpG:cyan>0.000000</xmpG:cyan>
                           <xmpG:magenta>90.000000</xmpG:magenta>
                           <xmpG:yellow>85.000000</xmpG:yellow>
                           <xmpG:black>0.000000</xmpG:black>
                        </rdf:li>
                        <rdf:li rdf:parseType="Resource">
                           <xmpG:swatchName>C=0 M=80 Y=95 K=0</xmpG:swatchName>
                           <xmpG:mode>CMYK</xmpG:mode>
                           <xmpG:type>PROCESS</xmpG:type>
                           <xmpG:cyan>0.000000</xmpG:cyan>
                           <xmpG:magenta>80.000000</xmpG:magenta>
                           <xmpG:yellow>95.000000</xmpG:yellow>
                           <xmpG:black>0.000000</xmpG:black>
                        </rdf:li>
                        <rdf:li rdf:parseType="Resource">
                           <xmpG:swatchName>C=0 M=50 Y=100 K=0</xmpG:swatchName>
                           <xmpG:mode>CMYK</xmpG:mode>
                           <xmpG:type>PROCESS</xmpG:type>
                           <xmpG:cyan>0.000000</xmpG:cyan>
                           <xmpG:magenta>50.000000</xmpG:magenta>
                           <xmpG:yellow>100.000000</xmpG:yellow>
                           <xmpG:black>0.000000</xmpG:black>
                        </rdf:li>
                        <rdf:li rdf:parseType="Resource">
                           <xmpG:swatchName>C=0 M=35 Y=85 K=0</xmpG:swatchName>
                           <xmpG:mode>CMYK</xmpG:mode>
                           <xmpG:type>PROCESS</xmpG:type>
                           <xmpG:cyan>0.000000</xmpG:cyan>
                           <xmpG:magenta>35.000004</xmpG:magenta>
                           <xmpG:yellow>85.000000</xmpG:yellow>
                           <xmpG:black>0.000000</xmpG:black>
                        </rdf:li>
                        <rdf:li rdf:parseType="Resource">
                           <xmpG:swatchName>C=5 M=0 Y=90 K=0</xmpG:swatchName>
                           <xmpG:mode>CMYK</xmpG:mode>
                           <xmpG:type>PROCESS</xmpG:type>
                           <xmpG:cyan>5.000001</xmpG:cyan>
                           <xmpG:magenta>0.000000</xmpG:magenta>
                           <xmpG:yellow>90.000000</xmpG:yellow>
                           <xmpG:black>0.000000</xmpG:black>
                        </rdf:li>
                        <rdf:li rdf:parseType="Resource">
                           <xmpG:swatchName>C=20 M=0 Y=100 K=0</xmpG:swatchName>
                           <xmpG:mode>CMYK</xmpG:mode>
                           <xmpG:type>PROCESS</xmpG:type>
                           <xmpG:cyan>19.999998</xmpG:cyan>
                           <xmpG:magenta>0.000000</xmpG:magenta>
                           <xmpG:yellow>100.000000</xmpG:yellow>
                           <xmpG:black>0.000000</xmpG:black>
                        </rdf:li>
                        <rdf:li rdf:parseType="Resource">
                           <xmpG:swatchName>C=50 M=0 Y=100 K=0</xmpG:swatchName>
                           <xmpG:mode>CMYK</xmpG:mode>
                           <xmpG:type>PROCESS</xmpG:type>
                           <xmpG:cyan>50.000000</xmpG:cyan>
                           <xmpG:magenta>0.000000</xmpG:magenta>
                           <xmpG:yellow>100.000000</xmpG:yellow>
                           <xmpG:black>0.000000</xmpG:black>
                        </rdf:li>
                        <rdf:li rdf:parseType="Resource">
                           <xmpG:swatchName>C=75 M=0 Y=100 K=0</xmpG:swatchName>
                           <xmpG:mode>CMYK</xmpG:mode>
                           <xmpG:type>PROCESS</xmpG:type>
                           <xmpG:cyan>75.000000</xmpG:cyan>
                           <xmpG:magenta>0.000000</xmpG:magenta>
                           <xmpG:yellow>100.000000</xmpG:yellow>
                           <xmpG:black>0.000000</xmpG:black>
                        </rdf:li>
                        <rdf:li rdf:parseType="Resource">
                           <xmpG:swatchName>C=85 M=10 Y=100 K=10</xmpG:swatchName>
                           <xmpG:mode>CMYK</xmpG:mode>
                           <xmpG:type>PROCESS</xmpG:type>
                           <xmpG:cyan>85.000000</xmpG:cyan>
                           <xmpG:magenta>10.000002</xmpG:magenta>
                           <xmpG:yellow>100.000000</xmpG:yellow>
                           <xmpG:black>10.000002</xmpG:black>
                        </rdf:li>
                        <rdf:li rdf:parseType="Resource">
                           <xmpG:swatchName>C=90 M=30 Y=95 K=30</xmpG:swatchName>
                           <xmpG:mode>CMYK</xmpG:mode>
                           <xmpG:type>PROCESS</xmpG:type>
                           <xmpG:cyan>90.000000</xmpG:cyan>
                           <xmpG:magenta>30.000002</xmpG:magenta>
                           <xmpG:yellow>95.000000</xmpG:yellow>
                           <xmpG:black>30.000002</xmpG:black>
                        </rdf:li>
                        <rdf:li rdf:parseType="Resource">
                           <xmpG:swatchName>C=75 M=0 Y=75 K=0</xmpG:swatchName>
                           <xmpG:mode>CMYK</xmpG:mode>
                           <xmpG:type>PROCESS</xmpG:type>
                           <xmpG:cyan>75.000000</xmpG:cyan>
                           <xmpG:magenta>0.000000</xmpG:magenta>
                           <xmpG:yellow>75.000000</xmpG:yellow>
                           <xmpG:black>0.000000</xmpG:black>
                        </rdf:li>
                        <rdf:li rdf:parseType="Resource">
                           <xmpG:swatchName>C=80 M=10 Y=45 K=0</xmpG:swatchName>
                           <xmpG:mode>CMYK</xmpG:mode>
                           <xmpG:type>PROCESS</xmpG:type>
                           <xmpG:cyan>80.000000</xmpG:cyan>
                           <xmpG:magenta>10.000002</xmpG:magenta>
                           <xmpG:yellow>45.000000</xmpG:yellow>
                           <xmpG:black>0.000000</xmpG:black>
                        </rdf:li>
                        <rdf:li rdf:parseType="Resource">
                           <xmpG:swatchName>C=70 M=15 Y=0 K=0</xmpG:swatchName>
                           <xmpG:mode>CMYK</xmpG:mode>
                           <xmpG:type>PROCESS</xmpG:type>
                           <xmpG:cyan>70.000000</xmpG:cyan>
                           <xmpG:magenta>14.999998</xmpG:magenta>
                           <xmpG:yellow>0.000000</xmpG:yellow>
                           <xmpG:black>0.000000</xmpG:black>
                        </rdf:li>
                        <rdf:li rdf:parseType="Resource">
                           <xmpG:swatchName>C=85 M=50 Y=0 K=0</xmpG:swatchName>
                           <xmpG:mode>CMYK</xmpG:mode>
                           <xmpG:type>PROCESS</xmpG:type>
                           <xmpG:cyan>85.000000</xmpG:cyan>
                           <xmpG:magenta>50.000000</xmpG:magenta>
                           <xmpG:yellow>0.000000</xmpG:yellow>
                           <xmpG:black>0.000000</xmpG:black>
                        </rdf:li>
                        <rdf:li rdf:parseType="Resource">
                           <xmpG:swatchName>C=100 M=95 Y=5 K=0</xmpG:swatchName>
                           <xmpG:mode>CMYK</xmpG:mode>
                           <xmpG:type>PROCESS</xmpG:type>
                           <xmpG:cyan>100.000000</xmpG:cyan>
                           <xmpG:magenta>95.000000</xmpG:magenta>
                           <xmpG:yellow>5.000001</xmpG:yellow>
                           <xmpG:black>0.000000</xmpG:black>
                        </rdf:li>
                        <rdf:li rdf:parseType="Resource">
                           <xmpG:swatchName>C=100 M=100 Y=25 K=25</xmpG:swatchName>
                           <xmpG:mode>CMYK</xmpG:mode>
                           <xmpG:type>PROCESS</xmpG:type>
                           <xmpG:cyan>100.000000</xmpG:cyan>
                           <xmpG:magenta>100.000000</xmpG:magenta>
                           <xmpG:yellow>25.000000</xmpG:yellow>
                           <xmpG:black>25.000000</xmpG:black>
                        </rdf:li>
                        <rdf:li rdf:parseType="Resource">
                           <xmpG:swatchName>C=75 M=100 Y=0 K=0</xmpG:swatchName>
                           <xmpG:mode>CMYK</xmpG:mode>
                           <xmpG:type>PROCESS</xmpG:type>
                           <xmpG:cyan>75.000000</xmpG:cyan>
                           <xmpG:magenta>100.000000</xmpG:magenta>
                           <xmpG:yellow>0.000000</xmpG:yellow>
                           <xmpG:black>0.000000</xmpG:black>
                        </rdf:li>
                        <rdf:li rdf:parseType="Resource">
                           <xmpG:swatchName>C=50 M=100 Y=0 K=0</xmpG:swatchName>
                           <xmpG:mode>CMYK</xmpG:mode>
                           <xmpG:type>PROCESS</xmpG:type>
                           <xmpG:cyan>50.000000</xmpG:cyan>
                           <xmpG:magenta>100.000000</xmpG:magenta>
                           <xmpG:yellow>0.000000</xmpG:yellow>
                           <xmpG:black>0.000000</xmpG:black>
                        </rdf:li>
                        <rdf:li rdf:parseType="Resource">
                           <xmpG:swatchName>C=35 M=100 Y=35 K=10</xmpG:swatchName>
                           <xmpG:mode>CMYK</xmpG:mode>
                           <xmpG:type>PROCESS</xmpG:type>
                           <xmpG:cyan>35.000004</xmpG:cyan>
                           <xmpG:magenta>100.000000</xmpG:magenta>
                           <xmpG:yellow>35.000004</xmpG:yellow>
                           <xmpG:black>10.000002</xmpG:black>
                        </rdf:li>
                        <rdf:li rdf:parseType="Resource">
                           <xmpG:swatchName>C=10 M=100 Y=50 K=0</xmpG:swatchName>
                           <xmpG:mode>CMYK</xmpG:mode>
                           <xmpG:type>PROCESS</xmpG:type>
                           <xmpG:cyan>10.000002</xmpG:cyan>
                           <xmpG:magenta>100.000000</xmpG:magenta>
                           <xmpG:yellow>50.000000</xmpG:yellow>
                           <xmpG:black>0.000000</xmpG:black>
                        </rdf:li>
                        <rdf:li rdf:parseType="Resource">
                           <xmpG:swatchName>C=0 M=95 Y=20 K=0</xmpG:swatchName>
                           <xmpG:mode>CMYK</xmpG:mode>
                           <xmpG:type>PROCESS</xmpG:type>
                           <xmpG:cyan>0.000000</xmpG:cyan>
                           <xmpG:magenta>95.000000</xmpG:magenta>
                           <xmpG:yellow>19.999998</xmpG:yellow>
                           <xmpG:black>0.000000</xmpG:black>
                        </rdf:li>
                        <rdf:li rdf:parseType="Resource">
                           <xmpG:swatchName>C=25 M=25 Y=40 K=0</xmpG:swatchName>
                           <xmpG:mode>CMYK</xmpG:mode>
                           <xmpG:type>PROCESS</xmpG:type>
                           <xmpG:cyan>25.000000</xmpG:cyan>
                           <xmpG:magenta>25.000000</xmpG:magenta>
                           <xmpG:yellow>39.999996</xmpG:yellow>
                           <xmpG:black>0.000000</xmpG:black>
                        </rdf:li>
                        <rdf:li rdf:parseType="Resource">
                           <xmpG:swatchName>C=40 M=45 Y=50 K=5</xmpG:swatchName>
                           <xmpG:mode>CMYK</xmpG:mode>
                           <xmpG:type>PROCESS</xmpG:type>
                           <xmpG:cyan>39.999996</xmpG:cyan>
                           <xmpG:magenta>45.000000</xmpG:magenta>
                           <xmpG:yellow>50.000000</xmpG:yellow>
                           <xmpG:black>5.000001</xmpG:black>
                        </rdf:li>
                        <rdf:li rdf:parseType="Resource">
                           <xmpG:swatchName>C=50 M=50 Y=60 K=25</xmpG:swatchName>
                           <xmpG:mode>CMYK</xmpG:mode>
                           <xmpG:type>PROCESS</xmpG:type>
                           <xmpG:cyan>50.000000</xmpG:cyan>
                           <xmpG:magenta>50.000000</xmpG:magenta>
                           <xmpG:yellow>60.000004</xmpG:yellow>
                           <xmpG:black>25.000000</xmpG:black>
                        </rdf:li>
                        <rdf:li rdf:parseType="Resource">
                           <xmpG:swatchName>C=55 M=60 Y=65 K=40</xmpG:swatchName>
                           <xmpG:mode>CMYK</xmpG:mode>
                           <xmpG:type>PROCESS</xmpG:type>
                           <xmpG:cyan>55.000000</xmpG:cyan>
                           <xmpG:magenta>60.000004</xmpG:magenta>
                           <xmpG:yellow>65.000000</xmpG:yellow>
                           <xmpG:black>39.999996</xmpG:black>
                        </rdf:li>
                        <rdf:li rdf:parseType="Resource">
                           <xmpG:swatchName>C=25 M=40 Y=65 K=0</xmpG:swatchName>
                           <xmpG:mode>CMYK</xmpG:mode>
                           <xmpG:type>PROCESS</xmpG:type>
                           <xmpG:cyan>25.000000</xmpG:cyan>
                           <xmpG:magenta>39.999996</xmpG:magenta>
                           <xmpG:yellow>65.000000</xmpG:yellow>
                           <xmpG:black>0.000000</xmpG:black>
                        </rdf:li>
                        <rdf:li rdf:parseType="Resource">
                           <xmpG:swatchName>C=30 M=50 Y=75 K=10</xmpG:swatchName>
                           <xmpG:mode>CMYK</xmpG:mode>
                           <xmpG:type>PROCESS</xmpG:type>
                           <xmpG:cyan>30.000002</xmpG:cyan>
                           <xmpG:magenta>50.000000</xmpG:magenta>
                           <xmpG:yellow>75.000000</xmpG:yellow>
                           <xmpG:black>10.000002</xmpG:black>
                        </rdf:li>
                        <rdf:li rdf:parseType="Resource">
                           <xmpG:swatchName>C=35 M=60 Y=80 K=25</xmpG:swatchName>
                           <xmpG:mode>CMYK</xmpG:mode>
                           <xmpG:type>PROCESS</xmpG:type>
                           <xmpG:cyan>35.000004</xmpG:cyan>
                           <xmpG:magenta>60.000004</xmpG:magenta>
                           <xmpG:yellow>80.000000</xmpG:yellow>
                           <xmpG:black>25.000000</xmpG:black>
                        </rdf:li>
                        <rdf:li rdf:parseType="Resource">
                           <xmpG:swatchName>C=40 M=65 Y=90 K=35</xmpG:swatchName>
                           <xmpG:mode>CMYK</xmpG:mode>
                           <xmpG:type>PROCESS</xmpG:type>
                           <xmpG:cyan>39.999996</xmpG:cyan>
                           <xmpG:magenta>65.000000</xmpG:magenta>
                           <xmpG:yellow>90.000000</xmpG:yellow>
                           <xmpG:black>35.000004</xmpG:black>
                        </rdf:li>
                        <rdf:li rdf:parseType="Resource">
                           <xmpG:swatchName>C=40 M=70 Y=100 K=50</xmpG:swatchName>
                           <xmpG:mode>CMYK</xmpG:mode>
                           <xmpG:type>PROCESS</xmpG:type>
                           <xmpG:cyan>39.999996</xmpG:cyan>
                           <xmpG:magenta>70.000000</xmpG:magenta>
                           <xmpG:yellow>100.000000</xmpG:yellow>
                           <xmpG:black>50.000000</xmpG:black>
                        </rdf:li>
                        <rdf:li rdf:parseType="Resource">
                           <xmpG:swatchName>C=50 M=70 Y=80 K=70</xmpG:swatchName>
                           <xmpG:mode>CMYK</xmpG:mode>
                           <xmpG:type>PROCESS</xmpG:type>
                           <xmpG:cyan>50.000000</xmpG:cyan>
                           <xmpG:magenta>70.000000</xmpG:magenta>
                           <xmpG:yellow>80.000000</xmpG:yellow>
                           <xmpG:black>70.000000</xmpG:black>
                        </rdf:li>
                     </rdf:Seq>
                  </xmpG:Colorants>
               </rdf:li>
               <rdf:li rdf:parseType="Resource">
                  <xmpG:groupName>Grays</xmpG:groupName>
                  <xmpG:groupType>1</xmpG:groupType>
                  <xmpG:Colorants>
                     <rdf:Seq>
                        <rdf:li rdf:parseType="Resource">
                           <xmpG:swatchName>C=0 M=0 Y=0 K=100</xmpG:swatchName>
                           <xmpG:mode>CMYK</xmpG:mode>
                           <xmpG:type>PROCESS</xmpG:type>
                           <xmpG:cyan>0.000000</xmpG:cyan>
                           <xmpG:magenta>0.000000</xmpG:magenta>
                           <xmpG:yellow>0.000000</xmpG:yellow>
                           <xmpG:black>100.000000</xmpG:black>
                        </rdf:li>
                        <rdf:li rdf:parseType="Resource">
                           <xmpG:swatchName>C=0 M=0 Y=0 K=90</xmpG:swatchName>
                           <xmpG:mode>CMYK</xmpG:mode>
                           <xmpG:type>PROCESS</xmpG:type>
                           <xmpG:cyan>0.000000</xmpG:cyan>
                           <xmpG:magenta>0.000000</xmpG:magenta>
                           <xmpG:yellow>0.000000</xmpG:yellow>
                           <xmpG:black>89.999405</xmpG:black>
                        </rdf:li>
                        <rdf:li rdf:parseType="Resource">
                           <xmpG:swatchName>C=0 M=0 Y=0 K=80</xmpG:swatchName>
                           <xmpG:mode>CMYK</xmpG:mode>
                           <xmpG:type>PROCESS</xmpG:type>
                           <xmpG:cyan>0.000000</xmpG:cyan>
                           <xmpG:magenta>0.000000</xmpG:magenta>
                           <xmpG:yellow>0.000000</xmpG:yellow>
                           <xmpG:black>79.998795</xmpG:black>
                        </rdf:li>
                        <rdf:li rdf:parseType="Resource">
                           <xmpG:swatchName>C=0 M=0 Y=0 K=70</xmpG:swatchName>
                           <xmpG:mode>CMYK</xmpG:mode>
                           <xmpG:type>PROCESS</xmpG:type>
                           <xmpG:cyan>0.000000</xmpG:cyan>
                           <xmpG:magenta>0.000000</xmpG:magenta>
                           <xmpG:yellow>0.000000</xmpG:yellow>
                           <xmpG:black>69.999702</xmpG:black>
                        </rdf:li>
                        <rdf:li rdf:parseType="Resource">
                           <xmpG:swatchName>C=0 M=0 Y=0 K=60</xmpG:swatchName>
                           <xmpG:mode>CMYK</xmpG:mode>
                           <xmpG:type>PROCESS</xmpG:type>
                           <xmpG:cyan>0.000000</xmpG:cyan>
                           <xmpG:magenta>0.000000</xmpG:magenta>
                           <xmpG:yellow>0.000000</xmpG:yellow>
                           <xmpG:black>59.999104</xmpG:black>
                        </rdf:li>
                        <rdf:li rdf:parseType="Resource">
                           <xmpG:swatchName>C=0 M=0 Y=0 K=50</xmpG:swatchName>
                           <xmpG:mode>CMYK</xmpG:mode>
                           <xmpG:type>PROCESS</xmpG:type>
                           <xmpG:cyan>0.000000</xmpG:cyan>
                           <xmpG:magenta>0.000000</xmpG:magenta>
                           <xmpG:yellow>0.000000</xmpG:yellow>
                           <xmpG:black>50.000000</xmpG:black>
                        </rdf:li>
                        <rdf:li rdf:parseType="Resource">
                           <xmpG:swatchName>C=0 M=0 Y=0 K=40</xmpG:swatchName>
                           <xmpG:mode>CMYK</xmpG:mode>
                           <xmpG:type>PROCESS</xmpG:type>
                           <xmpG:cyan>0.000000</xmpG:cyan>
                           <xmpG:magenta>0.000000</xmpG:magenta>
                           <xmpG:yellow>0.000000</xmpG:yellow>
                           <xmpG:black>39.999401</xmpG:black>
                        </rdf:li>
                        <rdf:li rdf:parseType="Resource">
                           <xmpG:swatchName>C=0 M=0 Y=0 K=30</xmpG:swatchName>
                           <xmpG:mode>CMYK</xmpG:mode>
                           <xmpG:type>PROCESS</xmpG:type>
                           <xmpG:cyan>0.000000</xmpG:cyan>
                           <xmpG:magenta>0.000000</xmpG:magenta>
                           <xmpG:yellow>0.000000</xmpG:yellow>
                           <xmpG:black>29.998802</xmpG:black>
                        </rdf:li>
                        <rdf:li rdf:parseType="Resource">
                           <xmpG:swatchName>C=0 M=0 Y=0 K=20</xmpG:swatchName>
                           <xmpG:mode>CMYK</xmpG:mode>
                           <xmpG:type>PROCESS</xmpG:type>
                           <xmpG:cyan>0.000000</xmpG:cyan>
                           <xmpG:magenta>0.000000</xmpG:magenta>
                           <xmpG:yellow>0.000000</xmpG:yellow>
                           <xmpG:black>19.999701</xmpG:black>
                        </rdf:li>
                        <rdf:li rdf:parseType="Resource">
                           <xmpG:swatchName>C=0 M=0 Y=0 K=10</xmpG:swatchName>
                           <xmpG:mode>CMYK</xmpG:mode>
                           <xmpG:type>PROCESS</xmpG:type>
                           <xmpG:cyan>0.000000</xmpG:cyan>
                           <xmpG:magenta>0.000000</xmpG:magenta>
                           <xmpG:yellow>0.000000</xmpG:yellow>
                           <xmpG:black>9.999103</xmpG:black>
                        </rdf:li>
                        <rdf:li rdf:parseType="Resource">
                           <xmpG:swatchName>C=0 M=0 Y=0 K=5</xmpG:swatchName>
                           <xmpG:mode>CMYK</xmpG:mode>
                           <xmpG:type>PROCESS</xmpG:type>
                           <xmpG:cyan>0.000000</xmpG:cyan>
                           <xmpG:magenta>0.000000</xmpG:magenta>
                           <xmpG:yellow>0.000000</xmpG:yellow>
                           <xmpG:black>4.998803</xmpG:black>
                        </rdf:li>
                     </rdf:Seq>
                  </xmpG:Colorants>
               </rdf:li>
               <rdf:li rdf:parseType="Resource">
                  <xmpG:groupName>Brights</xmpG:groupName>
                  <xmpG:groupType>1</xmpG:groupType>
                  <xmpG:Colorants>
                     <rdf:Seq>
                        <rdf:li rdf:parseType="Resource">
                           <xmpG:swatchName>C=0 M=100 Y=100 K=0</xmpG:swatchName>
                           <xmpG:mode>CMYK</xmpG:mode>
                           <xmpG:type>PROCESS</xmpG:type>
                           <xmpG:cyan>0.000000</xmpG:cyan>
                           <xmpG:magenta>100.000000</xmpG:magenta>
                           <xmpG:yellow>100.000000</xmpG:yellow>
                           <xmpG:black>0.000000</xmpG:black>
                        </rdf:li>
                        <rdf:li rdf:parseType="Resource">
                           <xmpG:swatchName>C=0 M=75 Y=100 K=0</xmpG:swatchName>
                           <xmpG:mode>CMYK</xmpG:mode>
                           <xmpG:type>PROCESS</xmpG:type>
                           <xmpG:cyan>0.000000</xmpG:cyan>
                           <xmpG:magenta>75.000000</xmpG:magenta>
                           <xmpG:yellow>100.000000</xmpG:yellow>
                           <xmpG:black>0.000000</xmpG:black>
                        </rdf:li>
                        <rdf:li rdf:parseType="Resource">
                           <xmpG:swatchName>C=0 M=10 Y=95 K=0</xmpG:swatchName>
                           <xmpG:mode>CMYK</xmpG:mode>
                           <xmpG:type>PROCESS</xmpG:type>
                           <xmpG:cyan>0.000000</xmpG:cyan>
                           <xmpG:magenta>10.000002</xmpG:magenta>
                           <xmpG:yellow>95.000000</xmpG:yellow>
                           <xmpG:black>0.000000</xmpG:black>
                        </rdf:li>
                        <rdf:li rdf:parseType="Resource">
                           <xmpG:swatchName>C=85 M=10 Y=100 K=0</xmpG:swatchName>
                           <xmpG:mode>CMYK</xmpG:mode>
                           <xmpG:type>PROCESS</xmpG:type>
                           <xmpG:cyan>85.000000</xmpG:cyan>
                           <xmpG:magenta>10.000002</xmpG:magenta>
                           <xmpG:yellow>100.000000</xmpG:yellow>
                           <xmpG:black>0.000000</xmpG:black>
                        </rdf:li>
                        <rdf:li rdf:parseType="Resource">
                           <xmpG:swatchName>C=100 M=90 Y=0 K=0</xmpG:swatchName>
                           <xmpG:mode>CMYK</xmpG:mode>
                           <xmpG:type>PROCESS</xmpG:type>
                           <xmpG:cyan>100.000000</xmpG:cyan>
                           <xmpG:magenta>90.000000</xmpG:magenta>
                           <xmpG:yellow>0.000000</xmpG:yellow>
                           <xmpG:black>0.000000</xmpG:black>
                        </rdf:li>
                        <rdf:li rdf:parseType="Resource">
                           <xmpG:swatchName>C=60 M=90 Y=0 K=0</xmpG:swatchName>
                           <xmpG:mode>CMYK</xmpG:mode>
                           <xmpG:type>PROCESS</xmpG:type>
                           <xmpG:cyan>60.000004</xmpG:cyan>
                           <xmpG:magenta>90.000000</xmpG:magenta>
                           <xmpG:yellow>0.003099</xmpG:yellow>
                           <xmpG:black>0.003099</xmpG:black>
                        </rdf:li>
                     </rdf:Seq>
                  </xmpG:Colorants>
               </rdf:li>
            </rdf:Seq>
         </xmpTPg:SwatchGroups>
      </rdf:Description>
      <rdf:Description rdf:about=""
            xmlns:pdf="http://ns.adobe.com/pdf/1.3/">
         <pdf:Producer>Adobe PDF library 10.01</pdf:Producer>
      </rdf:Description>
   </rdf:RDF>
</x:xmpmeta>
                                                                                                    
                                                                                                    
                                                                                                    
                                                                                                    
                                                                                                    
                                                                                                    
                                                                                                    
                                                                                                    
                                                                                                    
                                                                                                    
                                                                                                    
                                                                                                    
                                                                                                    
                                                                                                    
                                                                                                    
                                                                                                    
                                                                                                    
                                                                                                    
                                                                                                    
                                                                                                    
                           
<?xpacket end="w"?>
	</metadata>
<path fill="#8EC74E" d="M38.69,12.127c1.729-0.967,3.833-0.967,5.562,0c8.466,4.784,16.934,9.566,25.401,14.348
	c1.621,0.923,2.626,2.64,2.642,4.504v28.785c-0.031,1.938-1.122,3.703-2.841,4.601c-8.438,4.758-16.875,9.518-25.31,14.278
	c-1.765,0.977-3.918,0.916-5.623-0.155c-2.532-1.467-5.062-2.931-7.595-4.391c-0.555-0.25-1.053-0.607-1.467-1.055
	c0.324-0.436,0.901-0.49,1.369-0.68c1.04-0.371,2.044-0.84,2.997-1.397c0.246-0.146,0.554-0.126,0.78,0.046
	c2.163,1.242,4.307,2.518,6.478,3.745c0.463,0.269,0.932-0.088,1.329-0.308c8.281-4.681,16.565-9.355,24.852-14.025
	c0.303-0.151,0.482-0.472,0.452-0.81c0.006-9.495,0.006-18.99,0.003-28.486c0.031-0.379-0.183-0.736-0.53-0.888
	c-8.41-4.736-16.818-9.476-25.223-14.217c-0.299-0.206-0.693-0.206-0.991-0.001c-8.408,4.739-16.815,9.479-25.22,14.222
	c-0.351,0.148-0.566,0.505-0.534,0.884c0.001,9.495,0.001,18.991,0,28.487c-0.029,0.337,0.154,0.655,0.458,0.801
	c2.243,1.271,4.488,2.539,6.735,3.803c1.261,0.779,2.791,0.984,4.211,0.564c1.25-0.472,2.074-1.667,2.068-3.002
	c0.013-9.439-0.005-18.881,0.01-28.319c-0.011-0.393,0.299-0.719,0.692-0.728c0.027-0.001,0.054,0,0.082,0.002
	c1.078-0.007,2.157-0.015,3.235,0.002c0.413,0.019,0.732,0.367,0.714,0.779c-0.002,0.028-0.005,0.057-0.01,0.084
	c-0.004,9.499,0.011,19-0.006,28.499c0.146,2.629-1.149,5.128-3.38,6.525c-2.967,1.383-6.413,1.289-9.3-0.255
	c-2.468-1.232-4.822-2.686-7.245-4.005c-1.72-0.896-2.811-2.662-2.837-4.603V30.979c0.015-1.904,1.06-3.649,2.732-4.56
	C21.818,21.656,30.254,16.893,38.69,12.127z"/>
<path fill="#8EC74E" d="M46.052,32.066c3.728-0.483,7.517,0.097,10.931,1.672c2.516,1.502,4.05,4.224,4.03,7.153
	c-0.099,0.373-0.458,0.615-0.841,0.57c-1.067-0.002-2.135,0.014-3.202-0.008c-0.427-0.027-0.761-0.374-0.775-0.8
	c-0.244-1.412-1.097-2.644-2.331-3.37c-2.031-0.807-4.225-1.121-6.4-0.916c-1.604-0.049-3.188,0.346-4.579,1.141
	c-0.985,0.762-1.373,2.066-0.967,3.243c0.342,0.815,1.285,1.078,2.054,1.32c4.435,1.16,9.133,1.045,13.483,2.571
	c1.894,0.526,3.437,1.899,4.18,3.718c0.887,2.589,0.378,5.451-1.347,7.575c-1.533,1.594-3.525,2.668-5.7,3.073
	c-2.829,0.574-5.733,0.698-8.604,0.365c-2.753-0.158-5.394-1.15-7.567-2.847c-1.744-1.604-2.683-3.9-2.558-6.266
	c0.043-0.391,0.395-0.673,0.785-0.634c1.076-0.008,2.151-0.012,3.226,0.002c0.416-0.009,0.76,0.321,0.77,0.737
	c0,0.003,0,0.005,0,0.009c0.106,1.346,0.766,2.589,1.819,3.431c2.302,1.134,4.874,1.603,7.429,1.353
	c2.138,0.163,4.271-0.358,6.092-1.488c0.853-0.833,1.202-2.056,0.916-3.214c-0.262-0.949-1.256-1.393-2.107-1.682
	c-4.379-1.385-9.131-0.882-13.466-2.449c-1.841-0.538-3.354-1.856-4.138-3.606c-1.018-2.633-0.445-5.616,1.475-7.685
	C40.71,33.227,43.32,32.178,46.052,32.066L46.052,32.066z"/>
<g id="XMLID_2975_">
	<g id="XMLID_277_">
		<path id="XMLID_278_" fill="#EAEAEA" d="M77.124,6.872v77.309c0,0.971-0.623,1.76-1.389,1.76H2.39
			c-0.767,0-1.388-0.787-1.388-1.76V6.87c0-2.127,1.359-3.852,3.038-3.852h70.048C75.762,3.019,77.124,4.744,77.124,6.872z"/>
		<path id="XMLID_279_" fill="#D1D2D1" d="M77.124,6.872v13.773H1.001V6.872c0-2.128,1.361-3.854,3.038-3.854h70.048
			C75.762,3.019,77.124,4.744,77.124,6.872z"/>
		<path id="XMLID_1613_" fill="#D1D2D1" d="M77.123,17.564H1.002V6.87c0-2.126,1.361-3.851,3.039-3.851h70.044
			c1.678,0,3.038,1.725,3.038,3.851V17.564L77.123,17.564z"/>
	</g>
</g>
<path id="XMLID_155_" fill="#010101" d="M74.086,0.001h-8.633c-0.634,0-1.148,0.676-1.148,1.51s0.515,1.508,1.148,1.508h8.633
	c1.042,0,1.888,1.115,1.888,2.484v9.56C69.867,15,63.956,15.002,57.947,15.076c-0.635,0.008-1.145,0.689-1.139,1.522
	c0.007,0.83,0.52,1.496,1.148,1.496c0.004,0,0.009,0,0.011,0c6.001-0.072,11.906-0.075,18.006-0.011v67.542
	c0,0.176-0.106,0.316-0.238,0.316H17.462c-0.635,0-1.149,0.676-1.149,1.509s0.514,1.511,1.149,1.511h58.273
	c1.398,0,2.537-1.495,2.537-3.333V5.504C78.272,2.469,76.395,0.001,74.086,0.001z"/>
<path id="XMLID_589_" fill="#010101" d="M12.773,85.94H2.39c-0.131,0-0.24-0.141-0.24-0.313V18.09
	c16.928-0.071,34-0.071,50.771,0.004c0.002,0,0.003,0,0.004,0c0.632,0,1.146-0.673,1.147-1.502c0.003-0.834-0.508-1.514-1.142-1.516
	C36.155,15,19.08,15,2.15,15.072v-9.57c0-1.37,0.847-2.483,1.89-2.483h56.724c0.636,0,1.148-0.676,1.148-1.509
	C61.913,0.676,61.4,0,60.765,0H4.041C1.731,0-0.147,2.469-0.147,5.502v80.122c0,1.839,1.138,3.335,2.537,3.335h10.383
	c0.635,0,1.15-0.678,1.15-1.51C13.923,86.616,13.408,85.94,12.773,85.94z"/>
<path id="XMLID_154_" fill="#010101" d="M11.209,7.115c-0.634,0-1.147,0.514-1.147,1.147c0,0.634,0.513,1.149,1.147,1.149h40.978
	c0.634,0,1.148-0.515,1.148-1.149c0-0.633-0.515-1.147-1.148-1.147H11.209z"/>
<path id="XMLID_606_" fill="#010101" d="M56.594,7.952v0.2c0,0.634,0.515,1.149,1.149,1.149c0.634,0,1.147-0.515,1.147-1.149v-0.2
	c0-0.635-0.514-1.148-1.147-1.148C57.108,6.804,56.594,7.317,56.594,7.952z"/>
<path id="XMLID_120_" fill="#010101" d="M61.18,7.952v0.2c0,0.634,0.514,1.149,1.148,1.149s1.149-0.515,1.149-1.149v-0.2
	c0-0.635-0.515-1.148-1.149-1.148S61.18,7.317,61.18,7.952z"/>
<path id="XMLID_118_" fill="#010101" d="M68.063,8.152v-0.2c0-0.635-0.516-1.148-1.15-1.148s-1.149,0.513-1.149,1.148v0.2
	c0,0.634,0.515,1.149,1.149,1.149C67.548,9.3,68.063,8.786,68.063,8.152z"/>
<path id="XMLID_627_" d="M64.817,62.139h-9.291c-0.636,0-1.151,0.514-1.151,1.148s0.516,1.149,1.151,1.149h9.291
	c0.635,0,1.15-0.515,1.15-1.149S65.452,62.139,64.817,62.139z"/>
<path id="XMLID_637_" d="M64.817,65.808h-3.3c-0.635,0-1.149,0.515-1.149,1.151c0,0.634,0.515,1.147,1.149,1.147h3.3
	c0.635,0,1.15-0.514,1.15-1.147C65.968,66.322,65.452,65.808,64.817,65.808z"/>
<path id="XMLID_115_" d="M23.71,57.229c0.294,0,0.589-0.111,0.813-0.337c0.448-0.447,0.448-1.176,0-1.624l-6.292-6.292l6.292-6.292
	c0.448-0.449,0.448-1.175,0-1.625s-1.175-0.449-1.625,0l-7.104,7.104c-0.214,0.216-0.335,0.508-0.335,0.813
	c0,0.306,0.122,0.598,0.335,0.812l7.104,7.104C23.123,57.118,23.417,57.229,23.71,57.229z"/>
<path id="XMLID_642_" d="M55.226,41.061c-0.448-0.449-1.175-0.449-1.624,0c-0.447,0.449-0.447,1.176,0,1.625l6.292,6.292
	l-6.292,6.292c-0.447,0.449-0.447,1.177,0,1.624c0.225,0.225,0.519,0.337,0.813,0.337c0.291,0,0.587-0.111,0.81-0.337l7.104-7.104
	c0.216-0.215,0.337-0.507,0.337-0.812s-0.121-0.597-0.337-0.813L55.226,41.061z"/>
<path id="XMLID_645_" d="M37.362,41.804c-0.56-0.298-1.257-0.088-1.555,0.472l-7.084,13.263c-0.299,0.56-0.087,1.255,0.473,1.555
	c0.173,0.092,0.356,0.136,0.54,0.136c0.409,0,0.808-0.221,1.014-0.606l7.084-13.265C38.133,42.798,37.921,42.102,37.362,41.804z"/>
<path id="XMLID_113_" d="M38.61,57.055c0.635,0,1.15-0.516,1.15-1.149v-0.161c0-0.635-0.515-1.148-1.15-1.148
	s-1.15,0.514-1.15,1.148v0.161C37.461,56.539,37.977,57.055,38.61,57.055z"/>
<path id="XMLID_648_" d="M42.666,55.744v0.16c0,0.635,0.514,1.15,1.149,1.15c0.634,0,1.148-0.516,1.148-1.15v-0.16
	c0-0.636-0.515-1.149-1.148-1.149C43.18,54.595,42.666,55.109,42.666,55.744z"/>
<path id="XMLID_111_" d="M47.869,55.744v0.16c0,0.635,0.513,1.15,1.148,1.15s1.147-0.516,1.147-1.15v-0.16
	c0-0.636-0.512-1.149-1.147-1.149C48.382,54.596,47.869,55.109,47.869,55.744z"/>
</svg>
